{
  "properties": [
    {
      "name": "elasticsearch.host",
      "type": "java.lang.String",
      "description": "Description for elasticsearch.host."
    },
    {
      "name": "elasticsearch.port",
      "type": "java.lang.String",
      "description": "Description for elasticsearch.port."
    },
    {
      "name": "backend.resetCode",
      "type": "java.lang.String",
      "description": "Description for backend.resetCode."
    }
  ] }